1.31276
1.07494
1.56199
1.64013
1.22981
1.56639
1.23478
1.4714
1.57489
1.60466
4.972
1.57655
1.61387
1.16333
1.62263
2.11651
0.724428
0.422499
1.10854
1.04663
2.62673
1.25882
2.33775
3.13132
1.48084
1.8273
1.99221
1.31937
0.810933
3.84771
1.54829
1.59599
0.739277
1.19067
2.27248
0.793336
1.50967
1.3232
4.32753
1.2325
1.05842
1.06295
0.827992
1.59578
1.19618
1.07901
1.77144
1.66322
1.21393
1.1089
1.36692
1.25527
0.932046
1.10237
1.3924
1.36948
1.1386
1.21682
1.40149
0.945091
0.970841
1.35636
2.57098
1.10061
1.38992
1.16327
1.16866
1.50675
1.61525
1.72527
1.54229
1.55495
1.34295
1.2398
1.42744
1.3314
1.16207
1.55738
1.52
1.37311
1.38733
1.39744
1.03336
1.27128
1.22743
1.23729
1.37929
1.4433
2.0014
1.12691
0.870604
1.38332
0.890159
0.537793
3.42814
1.06192
0.621922
0.50634
0.359586
1.54377
0.709307
1.21549
1.94477
0.924523
0.843469
1.13478
0.787705
1.68088
1.90928
1.01733
4.66694
0.525104
1.94609
0.893051
2.62436
1.06435
4.62653
1.24715
0.852171
0.803706
1.26472
0.810749
0.777999
0.658634
0.919452
0.971871
1.43291
1.05794
0.747143
2.06397
0.983955
2.14979
0.834512
0.718639
3.3696
1.04993
1.02582
1.6148
0.47141
0.980617
0.946284
1.41477
1.11092
0.835987
1.01128
1.00454
1.31101
0.997815
0.77219
0.695158
0.744425
1.162
0.613309
0.819587
1.46099
2.0888
1.35627
1.39674
1.19376
1.39555
0.885289
0.741544
0.843162
0.985267
1.83601
0.976205
0.77743
0.695842
1.32269
0.917118
2.20211
1.06474
0.884656
1.31367
3.12302
1.60632
1.11953
1.39698
1.15177
1.20588
0.853409
0.660518
1.7748
3.25877
0.617266
0.935933
0.857284
0.735314
2.07027
0.868609
1.25647
5.24369
0.699822
0.359555
1.15649
0.713752
0.777135
0.836958
1.3679
2.21394
1.68835
2.05801
1.97476
2.34572
1.56346
2.9141
2.86456
1.81617
1.32283
2.41092
0.958637
2.15852
3.20832
3.66899
13.2337
1.43035
1.54728
4.49431
2.42514
1.03959
2.43806
3.90805
1.3762
4.2931
1.50969
1.29114
4.18351
0.621535
7.33261
3.49937
1.65718
7.04965
1.38575
1.86711
1.18191
2.09648
2.68617
3.76572
1.17041
2.00312
1.36335
0.824657
0.782992
1.31141
1.03657
1.07203
1.39106
0.897888
1.9459
1.6838
0.649103
1.02775
1.89404
1.3972
0.848269
1.85443
1.23371
1.07592
1.18086
1.03962
1.32738
1.01026
1.15481
1.90581
2.06851
2.13977
1.21983
0.848722
1.46985
3.23735
0.696917
0.65153
0.438582
0.617506
0.652211
0.839315
0.525188
0.621242
0.936074
1.03869
0.704485
0.333659
0.843064
0.568578
0.689204
0.722411
1.2742
0.450566
0.599063
0.559255
0.809505
0.475988
0.291428
0.538833
0.909119
0.835001
1.77812
0.458614
0.733672
0.602663
0.876519
0.970492
0.816837
0.820827
0.870094
0.495262
0.82816
0.89222
0.739551
0.883959
1.18665
1.16981
0.719555
0.728593
0.733296
0.584947
2.07771
0.780958
0.814737
1.29196
0.460485
0.782569
0.831594
0.950309
1.82824
1.10844
0.662095
1.23922
1.00905
0.625826
0.658228
1.26386
0.933693
0.656516
2.32869
0.678833
2.95172
1.26475
0.56504
1.03865
0.474572
0.815921
0.990132
0.694371
4.35219
0.619995
1.01111
3.41004
1.57403
0.949873
1.03056
0.672906
1.45375
0.999571
0.709761
0.740943
1.41927
0.762044
1.73704
1.27492
0.638142
2.10379
1.17864
0.851921
0.766026
6.48073
1.1445
1.40587
4.51743
6.13564
2.73506
2.269
0.854406
4.21358
0.737617
4.98321
0.774949
1.52486
4.31704
6.62215
0.855536
0.852151
1.73406
0.904914
0.842773
0.729825
1.33367
1.28753
1.1266
0.613958
0.571373
0.700146
0.57489
1.03417
0.856593
1.02649
0.87487
0.37909
0.356627
0.674679
0.773527
1.14963
0.414894
0.575949
1.04302
0.397786
1.01251
0.428246
0.315829
1.06881
2.24794
0.651674
0.967943
1.19972
0.608776
0.460949
1.06252
0.785018
1.69125
1.62316
2.16297
0.934464
0.805109
1.13827
0.900499
0.840759
0.551168
1.52712
0.901353
0.958125
0.71104
1.44406
0.968258
2.04947
0.843873
0.821653
0.731528
0.304306
0.970247
0.513021
0.844715
0.605693
0.962357
0.992804
1.07711
0.796386
0.917133
0.63932
0.56691
0.958351
1.40124
1.94907
0.88001
3.16054
1.72281
0.470638
1.01176
1.68666
0.885998
2.92698
1.28438
0.566559
1.80119
1.79377
1.72619
0.624091
0.526304
1.22398
1.33204
1.03305
0.622262
0.748914
1.24279
1.73565
0.745286
2.32821
1.23752
1.43453
0.331463
1.28218
0.511011
0.549853
2.12319
0.938835
0.588627
1.53711
3.49502
1.0293
1.19928
0.994696
1.44714
0.708521
1.38982
1.48486
2.16011
1.87995
0.905333
0.911026
1.20363
1.90967
7.63027
10.182
1.04622
0.718361
1.41112
1.1072
1.41855
1.99461
13.0146
0.502127
1.38522
1.82057
2.1061
1.45607
1.3788
1.25311
1.40876
2.87576
1.20581
1.58145
1.24504
1.35017
2.67255
2.21693
1.64152
1.40697
1.318
1.41197
1.75148
1.58642
2.88329
1.27932
1.28776
2.78785
1.86265
1.84809
1.21068
1.36406
1.28619
1.51262
1.29459
1.92179
1.41991
1.59799
2.04824
1.36403
2.07397
1.78987
3.25662
1.66172
1.74467
1.27238
1.3517
1.55761
1.31091
1.82848
1.40052
1.40343
1.15927
2.29893
2.36638
2.0517
1.27196
0.758376
2.26662
1.75254
1.54601
1.90384
1.44177
1.69304
0.519304
1.18639
1.44326
0.640008
1.41876
7.78005
3.32331
0.658082
0.620278
0.626039
6.9779
1.89541
0.708657
1.46817
0.989644
1.98517
3.28178
2.10309
0.630236
1.38744
1.45171
1.59647
1.7908
1.2242
3.11948
1.8096
1.09631
0.791663
0.846123
1.78338
