0.575417
0.498327
1.70638
1.98117
5.49006
1.68885
0.996483
0.524966
2.09619
2.62244
2.45199
1.9574
2.82112
1.79525
1.40353
0.938748
1.16459
1.5697
0.782535
0.990618
1.45878
1.20519
1.82161
3.09782
0.810196
0.697303
3.94657
4.02088
1.62749
1.131
2.09226
3.28382
2.49941
3.13185
0.936023
3.10409
2.52663
2.15847
1.37596
1.00783
1.6263
1.52873
1.44792
0.921382
0.760046
3.56637
1.14734
1.66861
1.86632
1.06066
1.50132
1.60594
1.6624
2.04921
3.98406
3.20973
6.7865
2.09647
1.67642
1.59983
1.35292
1.73317
2.47227
2.08659
2.66861
1.61063
1.3048
1.16786
0.813216
2.85834
2.91518
2.46605
1.11452
0.83998
1.10768
1.29838
0.614233
1.25603
3.01736
1.94447
2.21724
2.68406
1.51245
1.30287
1.04096
1.72817
3.11189
3.0398
3.91696
1.58566
1.77943
1.89917
3.04327
2.07511
2.1268
2.54225
1.84872
3.4729
1.99184
3.44625
1.13996
0.981802
0.801434
5.23715
1.08505
1.29482
0.99469
0.770314
0.97077
0.440856
1.46277
0.52005
1.58227
1.00489
0.824561
1.60841
1.55144
2.0063
1.27757
1.10652
1.15077
1.91263
1.46875
1.30431
0.982294
0.898981
1.29475
0.87784
1.43391
0.292798
1.3059
0.615763
1.24106
0.544688
1.69359
1.64558
1.01394
0.799966
1.39536
1.36986
0.649381
1.10821
1.13099
1.9048
0.129638
1.2233
4.10998
0.585205
0.53618
0.469884
0.0967161
2.2832
1.21154
2.06129
2.95369
2.56226
1.91957
2.32629
1.57497
4.59395
0.557141
0.694342
0.876019
1.32512
0.455826
3.39225
1.84714
1.35828
0.311272
2.01337
0.262228
5.80289
2.25082
3.78068
0.0667387
0.939773
1.24216
1.38686
2.4712
1.42813
1.87355
2.35991
2.60921
1.3923
1.08002
1.01107
1.30185
0.202149
0.428576
0.712028
0.495463
3.38921
1.52689
1.32505
0.582054
0.342205
0.697554
1.64809
0.401279
0.136433
1.3111
0.511207
1.83644
1.06
0.694187
0.519677
1.80473
1.3725
1.90167
1.0695
0.94852
0.461103
1.17221
2.07989
0.874009
0.648463
0.843689
1.55454
1.16459
0.446109
0.159702
0.376388
3.87864
0.734904
4.77134
0.851817
0.427429
0.563297
1.49573
0.436184
0.398439
0.401505
5.50355
1.14332
2.07282
1.10398
4.07967
0.635029
2.19616
0.398691
0.407571
3.54547
0.891452
1.02593
0.946557
2.12721
0.343069
0.999853
0.440802
0.897828
0.697333
0.290626
0.948713
0.961264
1.19936
1.19233
0.715037
1.01731
1.11921
0.932738
1.33411
1.03599
1.03462
1.63775
1.95019
1.60178
1.2242
1.85699
2.75623
1.3017
1.77044
1.34369
1.83673
1.58875
1.54996
0.900208
2.66323
1.19394
1.01273
2.0124
2.05353
2.55687
2.61527
3.36769
1.91031
1.70078
1.75255
1.65894
1.32972
1.10554
1.0688
1.35876
1.81554
2.83572
1.88261
1.81858
1.19286
1.56226
0.609672
1.15537
1.83978
3.72644
28.6841
0.929062
1.38043
1.51943
0.306443
2.93288
1.92764
1.1292
1.85131
2.51377
0.417001
0.961824
0.57628
6.06611
0.795986
1.2126
0.971298
1.0749
0.905757
3.56602
0.890731
2.25843
1.02256
0.78218
1.33163
2.67994
0.476795
1.17636
4.69655
2.27941
0.683592
5.0678
0.521187
0.252242
0.63998
0.614489
3.90432
0.95687
1.63097
1.44869
0.498718
0.696286
2.14942
5.58571
2.29915
0.742344
0.0731593
1.21711
3.93031
2.22227
3.07422
1.7836
1.13906
5.39037
1.66485
9.55244
4.50646
12.0392
5.91555
5.2666
11.1651
2.37596
1.05766
3.78553
1.59558
0.399359
8.94388
11.1844
1.90699
1.41842
4.27661
8.19378
3.16829
2.01754
0.85037
15.9775
1.79099
8.40049
3.78553
1.59558
9.42827
3.3806
6.89443
1.894
1.45215
3.08239
2.13591
1.84374
1.50614
8.37218
3.42332
2.8673
7.14561
0.734021
6.96551
1.36768
3.08028
1.94091
1.77492
0.54879
2.13848
0.828269
1.11628
1.75838
1.89285
2.61107
1.20341
1.19619
1.18302
1.66751
1.77369
1.79457
5.63139
2.352
2.7657
3.10791
4.43447
3.49723
3.29046
1.76863
4.70813
0.325644
1.70304
0.952441
2.95926
3.68611
2.49654
3.00964
0.629399
1.32353
0.291582
4.76289
0.613431
0.89047
3.74333
0.710999
2.88498
3.6218
2.50147
0.916294
1.7757
2.20798
1.73131
1.75909
1.96542
3.15445
0.965436
1.90429
0.388158
0.857844
1.20497
1.05041
0.872461
0.693797
0.560882
0.389056
0.469101
0.683832
0.472287
0.933695
1.0111
1.23381
0.850052
0.923579
0.96162
0.780064
1.36549
0.809563
0.147595
2.07036
0.634277
0.422339
0.278569
1.23329
1.33449
0.966733
0.92062
0.569929
0.339863
0.545743
0.775393
0.654252
1.12886
0.848743
1.57897
1.32476
0.989937
2.07439
0.670968
0.510866
0.804711
0.817337
0.116001
0.629904
0.233215
0.82451
0.22424
1.26522
