1.38732
2.12875
1.93373
2.10424
1.26329
1.68857
0.68863
0.904391
1.67549
0.811131
2.67633
1.12678
1.65585
0.701272
1.10254
0.943598
1.04962
0.454663
0.760194
0.781354
1.52315
1.11325
2.01474
1.99903
1.1346
1.43803
0.962359
1.48177
1.11097
1.97592
1.44354
0.795809
0.808973
1.20467
3.29201
1.94072
1.33226
1.43721
2.86721
0.772453
0.509741
0.890905
0.56588
1.28813
0.983515
0.926371
1.39938
1.60576
0.769097
1.76442
1.05489
1.3149
0.948382
0.818569
0.909937
1.43684
1.19956
0.760998
0.968018
1.16378
0.548471
1.37952
1.08923
0.762201
1.45981
0.938145
0.787871
0.876956
1.41259
0.900746
1.18229
1.25263
0.88148
1.03169
0.996156
0.533255
1.0648
1.0811
1.13163
0.886581
0.779246
1.09023
1.06643
0.945021
1.04062
1.10664
0.822024
0.932123
1.75478
0.822174
0.503014
1.50087
0.318551
1.2965
3.94881
0.477551
1.04039
0.735944
1.14948
0.668691
0.511931
0.989772
1.20658
1.2007
0.634687
0.83117
0.690171
3.0263
1.46024
0.843294
4.47113
0.486002
1.8042
0.612338
0.943282
0.522647
3.20531
0.97844
1.21964
1.00571
1.44086
0.660081
1.37556
0.914844
1.01478
0.878749
1.24556
1.04472
0.572207
0.69188
1.37723
1.97634
0.699988
1.4838
2.28642
1.18068
1.08259
2.12795
0.597148
1.36036
1.70856
1.11233
1.16575
1.47076
1.09195
0.922266
1.61797
1.15172
0.880536
0.899522
2.22186
2.22828
4.14751
3.35587
2.62044
2.29767
1.41322
1.68795
3.86592
3.91516
2.58611
4.13066
3.323
2.7858
1.03287
3.09986
2.34796
3.5186
1.69958
3.3346
1.28989
2.52785
3.0801
1.41226
5.02339
4.11805
7.10962
2.77195
2.163
1.99851
5.31243
3.21921
4.96124
3.4445
7.14016
9.1418
6.25586
4.75745
3.64541
4.60405
4.98364
8.63233
3.19453
9.14218
7.40704
5.35365
4.27988
7.52601
7.1838
4.66962
5.10225
6.20655
4.73816
5.13954
4.62067
4.68683
3.65474
5.31497
6.07751
1.72178
0.973434
16.3555
7.85185
13.0673
28.1083
4.71875
9.11065
4.71306
6.72429
8.72552
6.5
14.4832
5.33234
7.05249
3.76634
2.78071
18.931
3.31644
24.03
5.45218
4.85011
1.85225
11.9348
6.47131
4.61644
9.56667
5.49318
12.1408
5.40188
1.39014
1.13726
1.51688
0.799601
1.63168
0.882806
0.963653
1.07729
1.04762
1.07727
1.20267
1.32965
0.986312
1.59141
1.0685
1.1397
1.11079
1.25274
1.29737
1.32326
0.809544
1.04643
1.03025
1.24478
2.56975
1.36869
1.36948
0.910756
0.613283
1.38312
0.923554
0.899851
1.2489
0.766272
1.02695
1.12807
0.958963
0.818619
1.00339
0.928152
0.948255
1.43088
0.959299
0.993247
1.01001
0.735307
1.04821
1.33829
1.01043
1.036
1.00129
0.650057
0.920326
0.974207
1.23282
0.980947
1.54385
1.42553
0.990164
1.07083
1.09194
0.858544
0.99576
0.716549
0.88426
0.862079
0.884171
0.576619
0.336169
0.703591
0.939134
0.86544
1.00956
0.90955
0.503412
0.990374
0.533038
1.47306
0.538751
0.897155
0.864428
0.54276
0.793953
0.872134
0.888177
1.29462
0.987439
0.59743
1.5946
0.818641
0.865065
0.645256
1.15703
0.807507
0.750219
0.846834
0.864038
2.77375
1.1051
0.772545
1.05119
0.643803
0.778549
1.05417
0.422536
1.14765
0.739439
1.05979
1.09705
0.597724
0.731913
0.350979
0.802858
0.680568
0.633418
0.81508
0.448228
0.517467
0.468059
1.13492
0.430245
1.30558
0.971038
0.501585
0.858655
0.542436
0.748207
0.848229
0.872242
2.3985
0.883638
0.94189
1.20002
1.07419
1.35299
0.597939
0.982688
0.547952
0.990919
0.77887
0.866977
1.1907
1.2873
0.587924
0.810463
0.89189
3.02066
1.56149
0.89396
1.26767
0.644943
0.588984
1.38258
0.952614
1.07817
1.22815
1.05837
0.314498
0.502128
0.509926
2.02855
0.622052
0.955389
1.13803
1.33154
1.21556
0.553674
0.420769
0.744571
0.495448
1.05232
1.46757
1.19278
0.861157
0.928523
1.21868
1.13005
0.752693
0.408996
2.77145
0.879554
0.797148
0.424161
1.0485
0.701356
1.08417
0.505018
1.19391
0.850915
0.636028
0.558583
0.558571
0.913453
0.526427
0.898944
0.862038
0.415492
0.670091
0.84236
1.64464
0.869495
0.561786
0.986056
0.960754
0.773233
0.92504
1.82349
1.15556
0.529972
1.22331
0.852835
0.840161
0.27801
0.735499
1.45621
4.21496
0.61902
0.422133
0.448086
0.792997
1.50897
0.417968
0.971674
0.658739
0.859742
0.46723
0.396298
0.453647
1.6981
1.16697
0.766796
0.562098
1.66422
1.71438
0.953068
0.628716
1.11188
0.621932
0.581906
0.559556
0.811024
4.45379
1.53963
6.7218
6.22181
1.40966
2.46212
4.84699
1.59567
1.41871
1.5916
7.82494
2.46728
1.32517
1.07395
4.47447
1.29482
1.75297
2.10834
1.00427
5.24693
5.42585
4.91481
2.16313
1.55844
4.74649
10.1339
2.89408
1.10956
5.6678
4.26354
6.29679
1.90858
4.39799
3.10954
3.78468
2.7603
2.00383
4.31742
3.992
3.43059
1.66415
4.08443
4.84814
3.31552
3.73279
2.57523
2.01329
5.62041
2.78993
2.63756
3.52312
4.89461
5.33221
3.51827
2.97625
1.99999
5.39138
4.01974
4.24669
0.314228
2.771
6.13605
3.49842
1.98484
3.60359
2.55799
1.7504
2.78668
3.23018
1.74989
5.33059
2.86749
11.3189
3.34444
3.40777
4.4209
10.769
11.4299
3.31378
3.34084
10.2874
2.91237
2.10855
2.97873
1.51187
2.6046
2.02537
1.27755
2.27437
5.67227
0.840124
2.13457
3.74715
2.05084
2.39145
12.0385
2.51785
0.911593
4.88132
1.51294
10.2514
2.80633
2.02752
2.67753
1.12137
6.36465
4.54702
6.40529
2.03329
1.63282
1.36671
2.5202
1.82
3.00198
3.74775
3.41315
4.87921
0.657713
2.40138
1.38432
